{"meta": {"total_items": 127, "next_page": null, "current_page": 9, "total_pages": 9, "prev_page": 8}, "history": [{"result": "win", "note": null, "added": "2016-06-02T00:20:08.000Z", "hero": "Druid", "rank": 19, "legend": null, "opponent_deck": null, "card_history": [{"player": "me", "card": {"mana": null, "id": "GAME_005", "name": "The Coin"}, "turn": 3}, {"player": "me", "card": {"mana": 4, "id": "OG_202", "name": "Mire Keeper"}, "turn": 3}, {"player": "opponent", "card": {"mana": 4, "id": "EX1_043", "name": "Twilight Drake"}, "turn": 4}, {"player": "me", "card": {"mana": 1, "id": "LOE_115", "name": "Raven Idol"}, "turn": 4}, {"player": "me", "card": {"mana": 4, "id": "EX1_158", "name": "Soul of the Forest"}, "turn": 4}, {"player": "opponent", "card": {"mana": 4, "id": "EX1_043", "name": "Twilight Drake"}, "turn": 5}, {"player": "me", "card": {"mana": 3, "id": "OG_047", "name": "Feral Rage"}, "turn": 5}, {"player": "me", "card": {"mana": 1, "id": "AT_037", "name": "Living Roots"}, "turn": 5}, {"player": "opponent", "card": {"mana": 2, "id": "CS2_234", "name": "Shadow Word: Pain"}, "turn": 6}, {"player": "me", "card": {"mana": 4, "id": "OG_202", "name": "Mire Keeper"}, "turn": 6}, {"player": "opponent", "card": {"mana": 2, "id": "CS2_234", "name": "Shadow Word: Pain"}, "turn": 7}, {"player": "me", "card": {"mana": 9, "id": "EX1_573", "name": "Cenarius"}, "turn": 7}, {"player": "opponent", "card": {"mana": 5, "id": "CS1_112", "name": "Holy Nova"}, "turn": 8}, {"player": "opponent", "card": {"mana": 1, "id": "BRM_004", "name": "Twilight Whelp"}, "turn": 8}, {"player": "me", "card": {"mana": 4, "id": "NEW1_026", "name": "Violet Teacher"}, "turn": 8}, {"player": "me", "card": {"mana": 2, "id": "EX1_154", "name": "Wrath"}, "turn": 8}, {"player": "me", "card": {"mana": 4, "id": "CS2_012", "name": "Swipe"}, "turn": 8}, {"player": "opponent", "card": {"mana": 3, "id": "EX1_339", "name": "Thoughtsteal"}, "turn": 9}, {"player": "opponent", "card": {"mana": 1, "id": "LOE_115", "name": "Raven Idol"}, "turn": 9}, {"player": "opponent", "card": {"mana": 5, "id": "CS1_112", "name": "Holy Nova"}, "turn": 9}, {"player": "me", "card": {"mana": 4, "id": "OG_044", "name": "Fandral Staghelm"}, "turn": 9}, {"player": "me", "card": {"mana": 2, "id": "CS2_013", "name": "Wild Growth"}, "turn": 9}, {"player": "me", "card": {"mana": 0, "id": "CS2_013t", "name": "Excess Mana"}, "turn": 9}, {"player": "me", "card": {"mana": 4, "id": "EX1_158", "name": "Soul of the Forest"}, "turn": 9}, {"player": "opponent", "card": {"mana": 6, "id": "EX1_624", "name": "Holy Fire"}, "turn": 10}, {"player": "opponent", "card": {"mana": 2, "id": "NEW1_021", "name": "Doomsayer"}, "turn": 10}, {"player": "me", "card": {"mana": 7, "id": "OG_195", "name": "Wisps of the Old Gods"}, "turn": 10}, {"player": "opponent", "card": {"mana": 7, "id": "AT_018", "name": "Confessor Paletress"}, "turn": 11}, {"player": "me", "card": {"mana": 4, "id": "CS2_012", "name": "Swipe"}, "turn": 11}, {"player": "me", "card": {"mana": 0, "id": "EX1_169", "name": "Innervate"}, "turn": 11}], "mode": "ranked", "duration": 524, "hero_deck": null, "coin": true, "id": 30282795, "opponent": "Priest"}, {"result": "win", "note": null, "added": "2016-06-01T23:05:56.000Z", "hero": "Druid", "rank": 19, "legend": null, "opponent_deck": null, "card_history": [{"player": "me", "card": {"mana": 2, "id": "CS2_013", "name": "Wild Growth"}, "turn": 2}, {"player": "me", "card": {"mana": 4, "id": "OG_202", "name": "Mire Keeper"}, "turn": 3}, {"player": "opponent", "card": {"mana": 4, "id": "EX1_043", "name": "Twilight Drake"}, "turn": 4}, {"player": "me", "card": {"mana": 4, "id": "NEW1_026", "name": "Violet Teacher"}, "turn": 4}, {"player": "me", "card": {"mana": 2, "id": "EX1_154", "name": "Wrath"}, "turn": 4}, {"player": "me", "card": {"mana": null, "id": "GAME_005", "name": "The Coin"}, "turn": 4}, {"player": "me", "card": {"mana": 1, "id": "AT_037", "name": "Living Roots"}, "turn": 4}, {"player": "opponent", "card": {"mana": 3, "id": "AT_064", "name": "Bash"}, "turn": 5}, {"player": "opponent", "card": {"mana": 2, "id": "AT_071", "name": "Alexstrasza's Champion"}, "turn": 5}, {"player": "me", "card": {"mana": 0, "id": "EX1_169", "name": "Innervate"}, "turn": 5}, {"player": "me", "card": {"mana": 9, "id": "EX1_573", "name": "Cenarius"}, "turn": 5}, {"player": "opponent", "card": {"mana": 5, "id": "EX1_284", "name": "Azure Drake"}, "turn": 6}, {"player": "me", "card": {"mana": 2, "id": "EX1_160", "name": "Power of the Wild"}, "turn": 6}, {"player": "opponent", "card": {"mana": 1, "id": "CS2_108", "name": "Execute"}, "turn": 7}, {"player": "opponent", "card": {"mana": 6, "id": "BRM_028", "name": "Emperor Thaurissan"}, "turn": 7}, {"player": "me", "card": {"mana": 1, "id": "LOE_115", "name": "Raven Idol"}, "turn": 7}, {"player": "me", "card": {"mana": 6, "id": "EX1_173", "name": "Starfire"}, "turn": 7}], "mode": "ranked", "duration": 283, "hero_deck": null, "coin": true, "id": 30277416, "opponent": "Warrior"}, {"result": "loss", "note": null, "added": "2016-06-01T23:00:59.000Z", "hero": "Druid", "rank": 19, "legend": null, "opponent_deck": null, "card_history": [{"player": "opponent", "card": {"mana": 1, "id": "OG_241", "name": "Possessed Villager"}, "turn": 1}, {"player": "me", "card": {"mana": null, "id": "GAME_005", "name": "The Coin"}, "turn": 1}, {"player": "me", "card": {"mana": 2, "id": "EX1_154", "name": "Wrath"}, "turn": 1}, {"player": "opponent", "card": {"mana": 2, "id": "LOE_023", "name": "Dark Peddler"}, "turn": 2}, {"player": "opponent", "card": {"mana": 3, "id": "BRM_006", "name": "Imp Gang Boss"}, "turn": 3}, {"player": "me", "card": {"mana": 2, "id": "EX1_160", "name": "Power of the Wild"}, "turn": 3}, {"player": "opponent", "card": {"mana": 1, "id": "CS2_065", "name": "Voidwalker"}, "turn": 4}, {"player": "me", "card": {"mana": 2, "id": "CS2_013", "name": "Wild Growth"}, "turn": 4}, {"player": "opponent", "card": {"mana": 4, "id": "EX1_093", "name": "Defender of Argus"}, "turn": 5}, {"player": "me", "card": {"mana": 0, "id": "EX1_169", "name": "Innervate"}, "turn": 5}, {"player": "me", "card": {"mana": 0, "id": "EX1_169", "name": "Innervate"}, "turn": 5}, {"player": "me", "card": {"mana": 9, "id": "EX1_573", "name": "Cenarius"}, "turn": 5}, {"player": "opponent", "card": {"mana": 1, "id": "EX1_319", "name": "Flame Imp"}, "turn": 6}, {"player": "me", "card": {"mana": 7, "id": "OG_195", "name": "Wisps of the Old Gods"}, "turn": 6}, {"player": "opponent", "card": {"mana": 1, "id": "EX1_316", "name": "Power Overwhelming"}, "turn": 7}, {"player": "opponent", "card": {"mana": 4, "id": "EX1_093", "name": "Defender of Argus"}, "turn": 7}, {"player": "opponent", "card": {"mana": 1, "id": "EX1_308", "name": "Soulfire"}, "turn": 7}, {"player": "opponent", "card": {"mana": 1, "id": "EX1_308", "name": "Soulfire"}, "turn": 7}], "mode": "ranked", "duration": 267, "hero_deck": null, "coin": true, "id": 30276996, "opponent": "Warlock"}, {"result": "win", "note": null, "added": "2016-06-01T22:56:05.000Z", "hero": "Druid", "rank": null, "legend": null, "opponent_deck": null, "card_history": [], "mode": "ranked", "duration": 21, "hero_deck": null, "coin": false, "id": 30276564, "opponent": "Priest"}, {"result": "loss", "note": null, "added": "2016-06-01T13:51:07.000Z", "hero": "Warrior", "rank": 17, "legend": null, "opponent_deck": null, "card_history": [{"player": "opponent", "card": {"mana": 1, "id": "OG_072", "name": "Journey Below"}, "turn": 1}, {"player": "me", "card": {"mana": 1, "id": "LOE_076", "name": "Sir Finley Mrrgglton"}, "turn": 1}, {"player": "opponent", "card": {"mana": 3, "id": "EX1_134", "name": "SI:7 Agent"}, "turn": 3}, {"player": "me", "card": {"mana": 1, "id": "OG_314", "name": "Blood To Ichor"}, "turn": 3}, {"player": "opponent", "card": {"mana": 0, "id": "CS2_072", "name": "Backstab"}, "turn": 4}, {"player": "opponent", "card": {"mana": 4, "id": "LOE_012", "name": "Tomb Pillager"}, "turn": 4}, {"player": "me", "card": {"mana": 4, "id": "AT_017", "name": "Twilight Guardian"}, "turn": 4}, {"player": "me", "card": {"mana": null, "id": "GAME_005", "name": "The Coin"}, "turn": 4}, {"player": "me", "card": {"mana": 1, "id": "OG_314", "name": "Blood To Ichor"}, "turn": 4}, {"player": "opponent", "card": {"mana": 4, "id": "LOE_012", "name": "Tomb Pillager"}, "turn": 5}, {"player": "opponent", "card": {"mana": null, "id": "GAME_005", "name": "The Coin"}, "turn": 5}, {"player": "opponent", "card": {"mana": 2, "id": "EX1_096", "name": "Loot Hoarder"}, "turn": 5}, {"player": "me", "card": {"mana": 2, "id": "CS2_106", "name": "Fiery War Axe"}, "turn": 5}, {"player": "opponent", "card": {"mana": 4, "id": "LOE_012", "name": "Tomb Pillager"}, "turn": 6}, {"player": "opponent", "card": {"mana": null, "id": "GAME_005", "name": "The Coin"}, "turn": 6}, {"player": "opponent", "card": {"mana": 3, "id": "EX1_134", "name": "SI:7 Agent"}, "turn": 6}, {"player": "me", "card": {"mana": 5, "id": "EX1_284", "name": "Azure Drake"}, "turn": 6}, {"player": "opponent", "card": {"mana": 2, "id": "OG_330", "name": "Undercity Huckster"}, "turn": 7}, {"player": "opponent", "card": {"mana": 2, "id": "EX1_124", "name": "Eviscerate"}, "turn": 7}, {"player": "me", "card": {"mana": 3, "id": "OG_149", "name": "Ravaging Ghoul"}, "turn": 7}, {"player": "me", "card": {"mana": 1, "id": "CS2_108", "name": "Execute"}, "turn": 7}, {"player": "opponent", "card": {"mana": 1, "id": "CS2_074", "name": "Deadly Poison"}, "turn": 8}, {"player": "opponent", "card": {"mana": 5, "id": "BRM_008", "name": "Dark Iron Skulker"}, "turn": 8}, {"player": "me", "card": {"mana": 3, "id": "EX1_604", "name": "Frothing Berserker"}, "turn": 8}, {"player": "me", "card": {"mana": 5, "id": "EX1_284", "name": "Azure Drake"}, "turn": 8}, {"player": "opponent", "card": {"mana": null, "id": "GAME_005", "name": "The Coin"}, "turn": 9}, {"player": "opponent", "card": {"mana": 10, "id": "AT_072", "name": "Varian Wrynn"}, "turn": 9}, {"player": "opponent", "card": {"mana": 6, "id": "EX1_110", "name": "Cairne Bloodhoof"}, "turn": 9}, {"player": "opponent", "card": {"mana": 3, "id": "EX1_556", "name": "Harvest Golem"}, "turn": 9}, {"player": "opponent", "card": {"mana": 6, "id": "EX1_016", "name": "Sylvanas Windrunner"}, "turn": 9}], "mode": "ranked", "duration": 401, "hero_deck": null, "coin": true, "id": 30211909, "opponent": "Rogue"}, {"result": "win", "note": null, "added": "2016-06-01T13:44:15.000Z", "hero": "Warrior", "rank": 18, "legend": null, "opponent_deck": null, "card_history": [{"player": "me", "card": {"mana": 1, "id": "LOE_076", "name": "Sir Finley Mrrgglton"}, "turn": 1}, {"player": "opponent", "card": {"mana": null, "id": "GAME_005", "name": "The Coin"}, "turn": 1}, {"player": "opponent", "card": {"mana": 2, "id": "OG_206", "name": "Stormcrack"}, "turn": 1}, {"player": "me", "card": {"mana": 2, "id": "NEW1_023", "name": "Faerie Dragon"}, "turn": 2}, {"player": "me", "card": {"mana": 2, "id": "CS2_106", "name": "Fiery War Axe"}, "turn": 3}, {"player": "opponent", "card": {"mana": 3, "id": "EX1_248", "name": "Feral Spirit"}, "turn": 3}, {"player": "me", "card": {"mana": 2, "id": "EX1_392", "name": "Battle Rage"}, "turn": 4}, {"player": "opponent", "card": {"mana": 2, "id": "EX1_565", "name": "Flametongue Totem"}, "turn": 4}, {"player": "me", "card": {"mana": 5, "id": "BRM_034", "name": "Blackwing Corruptor"}, "turn": 5}, {"player": "opponent", "card": {"mana": 6, "id": "OG_028", "name": "Thing from Below"}, "turn": 5}, {"player": "me", "card": {"mana": 1, "id": "OG_314", "name": "Blood To Ichor"}, "turn": 6}, {"player": "me", "card": {"mana": 2, "id": "NEW1_023", "name": "Faerie Dragon"}, "turn": 6}, {"player": "opponent", "card": {"mana": 3, "id": "AT_051", "name": "Elemental Destruction"}, "turn": 6}, {"player": "opponent", "card": {"mana": 3, "id": "EX1_575", "name": "Mana Tide Totem"}, "turn": 6}, {"player": "me", "card": {"mana": 2, "id": "CS2_106", "name": "Fiery War Axe"}, "turn": 7}, {"player": "me", "card": {"mana": 8, "id": "EX1_298", "name": "Ragnaros the Firelord"}, "turn": 8}, {"player": "opponent", "card": {"mana": 3, "id": "AT_046", "name": "Tuskarr Totemic"}, "turn": 8}, {"player": "opponent", "card": {"mana": 3, "id": "EX1_248", "name": "Feral Spirit"}, "turn": 8}, {"player": "me", "card": {"mana": 4, "id": "NEW1_011", "name": "Kor'kron Elite"}, "turn": 9}, {"player": "me", "card": {"mana": 2, "id": "EX1_392", "name": "Battle Rage"}, "turn": 9}, {"player": "opponent", "card": {"mana": 6, "id": "OG_028", "name": "Thing from Below"}, "turn": 9}, {"player": "opponent", "card": {"mana": 5, "id": "EX1_284", "name": "Azure Drake"}, "turn": 9}, {"player": "me", "card": {"mana": 5, "id": "EX1_284", "name": "Azure Drake"}, "turn": 10}, {"player": "me", "card": {"mana": 4, "id": "AT_017", "name": "Twilight Guardian"}, "turn": 10}, {"player": "opponent", "card": {"mana": 1, "id": "LOE_018", "name": "Tunnel Trogg"}, "turn": 10}, {"player": "opponent", "card": {"mana": 2, "id": "AT_052", "name": "Totem Golem"}, "turn": 10}, {"player": "opponent", "card": {"mana": 2, "id": "EX1_565", "name": "Flametongue Totem"}, "turn": 10}, {"player": "opponent", "card": {"mana": 1, "id": "OG_027", "name": "Evolve"}, "turn": 10}, {"player": "me", "card": {"mana": 8, "id": "EX1_414", "name": "Grommash Hellscream"}, "turn": 11}], "mode": "ranked", "duration": 380, "hero_deck": null, "coin": false, "id": 30211136, "opponent": "Shaman"}, {"result": "win", "note": null, "added": "2016-06-01T06:58:38.000Z", "hero": "Warrior", "opponent_deck": null, "card_history": [{"player": "me", "card": {"mana": 1, "id": "LOE_076", "name": "Sir Finley Mrrgglton"}, "turn": 1}, {"player": "me", "card": {"mana": 2, "id": "CS2_106", "name": "Fiery War Axe"}, "turn": 2}, {"player": "opponent", "card": {"mana": 2, "id": "EX1_066", "name": "Acidic Swamp Ooze"}, "turn": 2}, {"player": "me", "card": {"mana": 3, "id": "LOE_022", "name": "Fierce Monkey"}, "turn": 3}, {"player": "me", "card": {"mana": 2, "id": "AT_071", "name": "Alexstrasza's Champion"}, "turn": 4}, {"player": "opponent", "card": {"mana": 4, "id": "AT_111", "name": "Refreshment Vendor"}, "turn": 4}, {"player": "me", "card": {"mana": 3, "id": "EX1_604", "name": "Frothing Berserker"}, "turn": 5}, {"player": "opponent", "card": {"mana": 2, "id": "EX1_278", "name": "Shiv"}, "turn": 5}, {"player": "opponent", "card": {"mana": 3, "id": "OG_176", "name": "Shadow Strike"}, "turn": 5}, {"player": "me", "card": {"mana": 5, "id": "BRM_034", "name": "Blackwing Corruptor"}, "turn": 6}, {"player": "opponent", "card": {"mana": 3, "id": "CS2_117", "name": "Earthen Ring Farseer"}, "turn": 6}, {"player": "opponent", "card": {"mana": null, "id": "GAME_005", "name": "The Coin"}, "turn": 6}, {"player": "opponent", "card": {"mana": 2, "id": "EX1_124", "name": "Eviscerate"}, "turn": 6}, {"player": "me", "card": {"mana": 1, "id": "CS2_108", "name": "Execute"}, "turn": 7}, {"player": "me", "card": {"mana": 2, "id": "NEW1_023", "name": "Faerie Dragon"}, "turn": 7}, {"player": "opponent", "card": {"mana": 2, "id": "NEW1_021", "name": "Doomsayer"}, "turn": 7}, {"player": "me", "card": {"mana": 2, "id": "EX1_392", "name": "Battle Rage"}, "turn": 8}, {"player": "opponent", "card": {"mana": 3, "id": "EX1_129", "name": "Fan of Knives"}, "turn": 8}, {"player": "me", "card": {"mana": 8, "id": "EX1_414", "name": "Grommash Hellscream"}, "turn": 9}, {"player": "me", "card": {"mana": 1, "id": "OG_314", "name": "Blood To Ichor"}, "turn": 9}], "mode": "casual", "duration": 366, "hero_deck": null, "coin": false, "id": 30174031, "opponent": "Rogue"}]}