{"history": [{"hero": "Druid", "note": null, "id": 30277416, "opponent_deck": null, "mode": "ranked", "opponent": "Warrior", "hero_deck": null, "result": "win", "added": "2016-06-01T23:05:56.000Z", "coin": true, "legend": null, "rank": 19, "card_history": [{"player": "me", "turn": 2, "card": {"id": "CS2_013", "name": "Wild Growth", "mana": 2}}, {"player": "me", "turn": 3, "card": {"id": "OG_202", "name": "Mire Keeper", "mana": 4}}, {"player": "opponent", "turn": 4, "card": {"id": "EX1_043", "name": "Twilight Drake", "mana": 4}}, {"player": "me", "turn": 4, "card": {"id": "NEW1_026", "name": "Violet Teacher", "mana": 4}}, {"player": "me", "turn": 4, "card": {"id": "EX1_154", "name": "Wrath", "mana": 2}}, {"player": "me", "turn": 4, "card": {"id": "GAME_005", "name": "The Coin", "mana": null}}, {"player": "me", "turn": 4, "card": {"id": "AT_037", "name": "Living Roots", "mana": 1}}, {"player": "opponent", "turn": 5, "card": {"id": "AT_064", "name": "Bash", "mana": 3}}, {"player": "opponent", "turn": 5, "card": {"id": "AT_071", "name": "Alexstrasza's Champion", "mana": 2}}, {"player": "me", "turn": 5, "card": {"id": "EX1_169", "name": "Innervate", "mana": 0}}, {"player": "me", "turn": 5, "card": {"id": "EX1_573", "name": "Cenarius", "mana": 9}}, {"player": "opponent", "turn": 6, "card": {"id": "EX1_284", "name": "Azure Drake", "mana": 5}}, {"player": "me", "turn": 6, "card": {"id": "EX1_160", "name": "Power of the Wild", "mana": 2}}, {"player": "opponent", "turn": 7, "card": {"id": "CS2_108", "name": "Execute", "mana": 1}}, {"player": "opponent", "turn": 7, "card": {"id": "BRM_028", "name": "Emperor Thaurissan", "mana": 6}}, {"player": "me", "turn": 7, "card": {"id": "LOE_115", "name": "Raven Idol", "mana": 1}}, {"player": "me", "turn": 7, "card": {"id": "EX1_173", "name": "Starfire", "mana": 6}}], "duration": 283}, {"hero": "Druid", "note": null, "id": 30276996, "opponent_deck": null, "mode": "ranked", "opponent": "Warlock", "hero_deck": null, "result": "loss", "added": "2016-06-01T23:00:59.000Z", "coin": true, "legend": null, "rank": 19, "card_history": [{"player": "opponent", "turn": 1, "card": {"id": "OG_241", "name": "Possessed Villager", "mana": 1}}, {"player": "me", "turn": 1, "card": {"id": "GAME_005", "name": "The Coin", "mana": null}}, {"player": "me", "turn": 1, "card": {"id": "EX1_154", "name": "Wrath", "mana": 2}}, {"player": "opponent", "turn": 2, "card": {"id": "LOE_023", "name": "Dark Peddler", "mana": 2}}, {"player": "opponent", "turn": 3, "card": {"id": "BRM_006", "name": "Imp Gang Boss", "mana": 3}}, {"player": "me", "turn": 3, "card": {"id": "EX1_160", "name": "Power of the Wild", "mana": 2}}, {"player": "opponent", "turn": 4, "card": {"id": "CS2_065", "name": "Voidwalker", "mana": 1}}, {"player": "me", "turn": 4, "card": {"id": "CS2_013", "name": "Wild Growth", "mana": 2}}, {"player": "opponent", "turn": 5, "card": {"id": "EX1_093", "name": "Defender of Argus", "mana": 4}}, {"player": "me", "turn": 5, "card": {"id": "EX1_169", "name": "Innervate", "mana": 0}}, {"player": "me", "turn": 5, "card": {"id": "EX1_169", "name": "Innervate", "mana": 0}}, {"player": "me", "turn": 5, "card": {"id": "EX1_573", "name": "Cenarius", "mana": 9}}, {"player": "opponent", "turn": 6, "card": {"id": "EX1_319", "name": "Flame Imp", "mana": 1}}, {"player": "me", "turn": 6, "card": {"id": "OG_195", "name": "Wisps of the Old Gods", "mana": 7}}, {"player": "opponent", "turn": 7, "card": {"id": "EX1_316", "name": "Power Overwhelming", "mana": 1}}, {"player": "opponent", "turn": 7, "card": {"id": "EX1_093", "name": "Defender of Argus", "mana": 4}}, {"player": "opponent", "turn": 7, "card": {"id": "EX1_308", "name": "Soulfire", "mana": 1}}, {"player": "opponent", "turn": 7, "card": {"id": "EX1_308", "name": "Soulfire", "mana": 1}}], "duration": 267}, {"hero": "Druid", "note": null, "id": 30276564, "opponent_deck": null, "mode": "ranked", "opponent": "Priest", "hero_deck": null, "result": "win", "added": "2016-06-01T22:56:05.000Z", "coin": false, "legend": null, "rank": null, "card_history": [], "duration": 21}, {"hero": "Warrior", "note": null, "id": 30211909, "opponent_deck": null, "mode": "ranked", "opponent": "Rogue", "hero_deck": null, "result": "loss", "added": "2016-06-01T13:51:07.000Z", "coin": true, "legend": null, "rank": 17, "card_history": [{"player": "opponent", "turn": 1, "card": {"id": "OG_072", "name": "Journey Below", "mana": 1}}, {"player": "me", "turn": 1, "card": {"id": "LOE_076", "name": "Sir Finley Mrrgglton", "mana": 1}}, {"player": "opponent", "turn": 3, "card": {"id": "EX1_134", "name": "SI:7 Agent", "mana": 3}}, {"player": "me", "turn": 3, "card": {"id": "OG_314", "name": "Blood To Ichor", "mana": 1}}, {"player": "opponent", "turn": 4, "card": {"id": "CS2_072", "name": "Backstab", "mana": 0}}, {"player": "opponent", "turn": 4, "card": {"id": "LOE_012", "name": "Tomb Pillager", "mana": 4}}, {"player": "me", "turn": 4, "card": {"id": "AT_017", "name": "Twilight Guardian", "mana": 4}}, {"player": "me", "turn": 4, "card": {"id": "GAME_005", "name": "The Coin", "mana": null}}, {"player": "me", "turn": 4, "card": {"id": "OG_314", "name": "Blood To Ichor", "mana": 1}}, {"player": "opponent", "turn": 5, "card": {"id": "LOE_012", "name": "Tomb Pillager", "mana": 4}}, {"player": "opponent", "turn": 5, "card": {"id": "GAME_005", "name": "The Coin", "mana": null}}, {"player": "opponent", "turn": 5, "card": {"id": "EX1_096", "name": "Loot Hoarder", "mana": 2}}, {"player": "me", "turn": 5, "card": {"id": "CS2_106", "name": "Fiery War Axe", "mana": 2}}, {"player": "opponent", "turn": 6, "card": {"id": "LOE_012", "name": "Tomb Pillager", "mana": 4}}, {"player": "opponent", "turn": 6, "card": {"id": "GAME_005", "name": "The Coin", "mana": null}}, {"player": "opponent", "turn": 6, "card": {"id": "EX1_134", "name": "SI:7 Agent", "mana": 3}}, {"player": "me", "turn": 6, "card": {"id": "EX1_284", "name": "Azure Drake", "mana": 5}}, {"player": "opponent", "turn": 7, "card": {"id": "OG_330", "name": "Undercity Huckster", "mana": 2}}, {"player": "opponent", "turn": 7, "card": {"id": "EX1_124", "name": "Eviscerate", "mana": 2}}, {"player": "me", "turn": 7, "card": {"id": "OG_149", "name": "Ravaging Ghoul", "mana": 3}}, {"player": "me", "turn": 7, "card": {"id": "CS2_108", "name": "Execute", "mana": 1}}, {"player": "opponent", "turn": 8, "card": {"id": "CS2_074", "name": "Deadly Poison", "mana": 1}}, {"player": "opponent", "turn": 8, "card": {"id": "BRM_008", "name": "Dark Iron Skulker", "mana": 5}}, {"player": "me", "turn": 8, "card": {"id": "EX1_604", "name": "Frothing Berserker", "mana": 3}}, {"player": "me", "turn": 8, "card": {"id": "EX1_284", "name": "Azure Drake", "mana": 5}}, {"player": "opponent", "turn": 9, "card": {"id": "GAME_005", "name": "The Coin", "mana": null}}, {"player": "opponent", "turn": 9, "card": {"id": "AT_072", "name": "Varian Wrynn", "mana": 10}}, {"player": "opponent", "turn": 9, "card": {"id": "EX1_110", "name": "Cairne Bloodhoof", "mana": 6}}, {"player": "opponent", "turn": 9, "card": {"id": "EX1_556", "name": "Harvest Golem", "mana": 3}}, {"player": "opponent", "turn": 9, "card": {"id": "EX1_016", "name": "Sylvanas Windrunner", "mana": 6}}], "duration": 401}, {"hero": "Warrior", "note": null, "id": 30211136, "opponent_deck": null, "mode": "ranked", "opponent": "Shaman", "hero_deck": null, "result": "win", "added": "2016-06-01T13:44:15.000Z", "coin": false, "legend": null, "rank": 18, "card_history": [{"player": "me", "turn": 1, "card": {"id": "LOE_076", "name": "Sir Finley Mrrgglton", "mana": 1}}, {"player": "opponent", "turn": 1, "card": {"id": "GAME_005", "name": "The Coin", "mana": null}}, {"player": "opponent", "turn": 1, "card": {"id": "OG_206", "name": "Stormcrack", "mana": 2}}, {"player": "me", "turn": 2, "card": {"id": "NEW1_023", "name": "Faerie Dragon", "mana": 2}}, {"player": "me", "turn": 3, "card": {"id": "CS2_106", "name": "Fiery War Axe", "mana": 2}}, {"player": "opponent", "turn": 3, "card": {"id": "EX1_248", "name": "Feral Spirit", "mana": 3}}, {"player": "me", "turn": 4, "card": {"id": "EX1_392", "name": "Battle Rage", "mana": 2}}, {"player": "opponent", "turn": 4, "card": {"id": "EX1_565", "name": "Flametongue Totem", "mana": 2}}, {"player": "me", "turn": 5, "card": {"id": "BRM_034", "name": "Blackwing Corruptor", "mana": 5}}, {"player": "opponent", "turn": 5, "card": {"id": "OG_028", "name": "Thing from Below", "mana": 6}}, {"player": "me", "turn": 6, "card": {"id": "OG_314", "name": "Blood To Ichor", "mana": 1}}, {"player": "me", "turn": 6, "card": {"id": "NEW1_023", "name": "Faerie Dragon", "mana": 2}}, {"player": "opponent", "turn": 6, "card": {"id": "AT_051", "name": "Elemental Destruction", "mana": 3}}, {"player": "opponent", "turn": 6, "card": {"id": "EX1_575", "name": "Mana Tide Totem", "mana": 3}}, {"player": "me", "turn": 7, "card": {"id": "CS2_106", "name": "Fiery War Axe", "mana": 2}}, {"player": "me", "turn": 8, "card": {"id": "EX1_298", "name": "Ragnaros the Firelord", "mana": 8}}, {"player": "opponent", "turn": 8, "card": {"id": "AT_046", "name": "Tuskarr Totemic", "mana": 3}}, {"player": "opponent", "turn": 8, "card": {"id": "EX1_248", "name": "Feral Spirit", "mana": 3}}, {"player": "me", "turn": 9, "card": {"id": "NEW1_011", "name": "Kor'kron Elite", "mana": 4}}, {"player": "me", "turn": 9, "card": {"id": "EX1_392", "name": "Battle Rage", "mana": 2}}, {"player": "opponent", "turn": 9, "card": {"id": "OG_028", "name": "Thing from Below", "mana": 6}}, {"player": "opponent", "turn": 9, "card": {"id": "EX1_284", "name": "Azure Drake", "mana": 5}}, {"player": "me", "turn": 10, "card": {"id": "EX1_284", "name": "Azure Drake", "mana": 5}}, {"player": "me", "turn": 10, "card": {"id": "AT_017", "name": "Twilight Guardian", "mana": 4}}, {"player": "opponent", "turn": 10, "card": {"id": "LOE_018", "name": "Tunnel Trogg", "mana": 1}}, {"player": "opponent", "turn": 10, "card": {"id": "AT_052", "name": "Totem Golem", "mana": 2}}, {"player": "opponent", "turn": 10, "card": {"id": "EX1_565", "name": "Flametongue Totem", "mana": 2}}, {"player": "opponent", "turn": 10, "card": {"id": "OG_027", "name": "Evolve", "mana": 1}}, {"player": "me", "turn": 11, "card": {"id": "EX1_414", "name": "Grommash Hellscream", "mana": 8}}], "duration": 380}, {"hero": "Warrior", "note": null, "added": "2016-06-01T06:58:38.000Z", "opponent_deck": null, "mode": "casual", "opponent": "Rogue", "result": "win", "id": 30174031, "coin": false, "hero_deck": null, "card_history": [{"player": "me", "turn": 1, "card": {"id": "LOE_076", "name": "Sir Finley Mrrgglton", "mana": 1}}, {"player": "me", "turn": 2, "card": {"id": "CS2_106", "name": "Fiery War Axe", "mana": 2}}, {"player": "opponent", "turn": 2, "card": {"id": "EX1_066", "name": "Acidic Swamp Ooze", "mana": 2}}, {"player": "me", "turn": 3, "card": {"id": "LOE_022", "name": "Fierce Monkey", "mana": 3}}, {"player": "me", "turn": 4, "card": {"id": "AT_071", "name": "Alexstrasza's Champion", "mana": 2}}, {"player": "opponent", "turn": 4, "card": {"id": "AT_111", "name": "Refreshment Vendor", "mana": 4}}, {"player": "me", "turn": 5, "card": {"id": "EX1_604", "name": "Frothing Berserker", "mana": 3}}, {"player": "opponent", "turn": 5, "card": {"id": "EX1_278", "name": "Shiv", "mana": 2}}, {"player": "opponent", "turn": 5, "card": {"id": "OG_176", "name": "Shadow Strike", "mana": 3}}, {"player": "me", "turn": 6, "card": {"id": "BRM_034", "name": "Blackwing Corruptor", "mana": 5}}, {"player": "opponent", "turn": 6, "card": {"id": "CS2_117", "name": "Earthen Ring Farseer", "mana": 3}}, {"player": "opponent", "turn": 6, "card": {"id": "GAME_005", "name": "The Coin", "mana": null}}, {"player": "opponent", "turn": 6, "card": {"id": "EX1_124", "name": "Eviscerate", "mana": 2}}, {"player": "me", "turn": 7, "card": {"id": "CS2_108", "name": "Execute", "mana": 1}}, {"player": "me", "turn": 7, "card": {"id": "NEW1_023", "name": "Faerie Dragon", "mana": 2}}, {"player": "opponent", "turn": 7, "card": {"id": "NEW1_021", "name": "Doomsayer", "mana": 2}}, {"player": "me", "turn": 8, "card": {"id": "EX1_392", "name": "Battle Rage", "mana": 2}}, {"player": "opponent", "turn": 8, "card": {"id": "EX1_129", "name": "Fan of Knives", "mana": 3}}, {"player": "me", "turn": 9, "card": {"id": "EX1_414", "name": "Grommash Hellscream", "mana": 8}}, {"player": "me", "turn": 9, "card": {"id": "OG_314", "name": "Blood To Ichor", "mana": 1}}], "duration": 366}], "meta": {"next_page": null, "prev_page": 14, "total_items": 216, "current_page": 15, "total_pages": 15}}