{"history": [{"mode": "ranked", "legend": null, "opponent_deck": null, "result": "loss", "hero_deck": null, "added": "2016-06-01T13:51:07.000Z", "opponent": "Rogue", "id": 30211909, "card_history": [{"card": {"mana": 1, "name": "Journey Below", "id": "OG_072"}, "player": "opponent", "turn": 1}, {"card": {"mana": 1, "name": "Sir Finley Mrrgglton", "id": "LOE_076"}, "player": "me", "turn": 1}, {"card": {"mana": 3, "name": "SI:7 Agent", "id": "EX1_134"}, "player": "opponent", "turn": 3}, {"card": {"mana": 1, "name": "Blood To Ichor", "id": "OG_314"}, "player": "me", "turn": 3}, {"card": {"mana": 0, "name": "Backstab", "id": "CS2_072"}, "player": "opponent", "turn": 4}, {"card": {"mana": 4, "name": "Tomb Pillager", "id": "LOE_012"}, "player": "opponent", "turn": 4}, {"card": {"mana": 4, "name": "Twilight Guardian", "id": "AT_017"}, "player": "me", "turn": 4}, {"card": {"mana": null, "name": "The Coin", "id": "GAME_005"}, "player": "me", "turn": 4}, {"card": {"mana": 1, "name": "Blood To Ichor", "id": "OG_314"}, "player": "me", "turn": 4}, {"card": {"mana": 4, "name": "Tomb Pillager", "id": "LOE_012"}, "player": "opponent", "turn": 5}, {"card": {"mana": null, "name": "The Coin", "id": "GAME_005"}, "player": "opponent", "turn": 5}, {"card": {"mana": 2, "name": "Loot Hoarder", "id": "EX1_096"}, "player": "opponent", "turn": 5}, {"card": {"mana": 2, "name": "Fiery War Axe", "id": "CS2_106"}, "player": "me", "turn": 5}, {"card": {"mana": 4, "name": "Tomb Pillager", "id": "LOE_012"}, "player": "opponent", "turn": 6}, {"card": {"mana": null, "name": "The Coin", "id": "GAME_005"}, "player": "opponent", "turn": 6}, {"card": {"mana": 3, "name": "SI:7 Agent", "id": "EX1_134"}, "player": "opponent", "turn": 6}, {"card": {"mana": 5, "name": "Azure Drake", "id": "EX1_284"}, "player": "me", "turn": 6}, {"card": {"mana": 2, "name": "Undercity Huckster", "id": "OG_330"}, "player": "opponent", "turn": 7}, {"card": {"mana": 2, "name": "Eviscerate", "id": "EX1_124"}, "player": "opponent", "turn": 7}, {"card": {"mana": 3, "name": "Ravaging Ghoul", "id": "OG_149"}, "player": "me", "turn": 7}, {"card": {"mana": 1, "name": "Execute", "id": "CS2_108"}, "player": "me", "turn": 7}, {"card": {"mana": 1, "name": "Deadly Poison", "id": "CS2_074"}, "player": "opponent", "turn": 8}, {"card": {"mana": 5, "name": "Dark Iron Skulker", "id": "BRM_008"}, "player": "opponent", "turn": 8}, {"card": {"mana": 3, "name": "Frothing Berserker", "id": "EX1_604"}, "player": "me", "turn": 8}, {"card": {"mana": 5, "name": "Azure Drake", "id": "EX1_284"}, "player": "me", "turn": 8}, {"card": {"mana": null, "name": "The Coin", "id": "GAME_005"}, "player": "opponent", "turn": 9}, {"card": {"mana": 10, "name": "Varian Wrynn", "id": "AT_072"}, "player": "opponent", "turn": 9}, {"card": {"mana": 6, "name": "Cairne Bloodhoof", "id": "EX1_110"}, "player": "opponent", "turn": 9}, {"card": {"mana": 3, "name": "Harvest Golem", "id": "EX1_556"}, "player": "opponent", "turn": 9}, {"card": {"mana": 6, "name": "Sylvanas Windrunner", "id": "EX1_016"}, "player": "opponent", "turn": 9}], "duration": 401, "rank": 17, "hero": "Warrior", "note": null, "coin": true}, {"mode": "ranked", "legend": null, "opponent_deck": null, "result": "win", "hero_deck": null, "added": "2016-06-01T13:44:15.000Z", "opponent": "Shaman", "id": 30211136, "card_history": [{"card": {"mana": 1, "name": "Sir Finley Mrrgglton", "id": "LOE_076"}, "player": "me", "turn": 1}, {"card": {"mana": null, "name": "The Coin", "id": "GAME_005"}, "player": "opponent", "turn": 1}, {"card": {"mana": 2, "name": "Stormcrack", "id": "OG_206"}, "player": "opponent", "turn": 1}, {"card": {"mana": 2, "name": "Faerie Dragon", "id": "NEW1_023"}, "player": "me", "turn": 2}, {"card": {"mana": 2, "name": "Fiery War Axe", "id": "CS2_106"}, "player": "me", "turn": 3}, {"card": {"mana": 3, "name": "Feral Spirit", "id": "EX1_248"}, "player": "opponent", "turn": 3}, {"card": {"mana": 2, "name": "Battle Rage", "id": "EX1_392"}, "player": "me", "turn": 4}, {"card": {"mana": 2, "name": "Flametongue Totem", "id": "EX1_565"}, "player": "opponent", "turn": 4}, {"card": {"mana": 5, "name": "Blackwing Corruptor", "id": "BRM_034"}, "player": "me", "turn": 5}, {"card": {"mana": 6, "name": "Thing from Below", "id": "OG_028"}, "player": "opponent", "turn": 5}, {"card": {"mana": 1, "name": "Blood To Ichor", "id": "OG_314"}, "player": "me", "turn": 6}, {"card": {"mana": 2, "name": "Faerie Dragon", "id": "NEW1_023"}, "player": "me", "turn": 6}, {"card": {"mana": 3, "name": "Elemental Destruction", "id": "AT_051"}, "player": "opponent", "turn": 6}, {"card": {"mana": 3, "name": "Mana Tide Totem", "id": "EX1_575"}, "player": "opponent", "turn": 6}, {"card": {"mana": 2, "name": "Fiery War Axe", "id": "CS2_106"}, "player": "me", "turn": 7}, {"card": {"mana": 8, "name": "Ragnaros the Firelord", "id": "EX1_298"}, "player": "me", "turn": 8}, {"card": {"mana": 3, "name": "Tuskarr Totemic", "id": "AT_046"}, "player": "opponent", "turn": 8}, {"card": {"mana": 3, "name": "Feral Spirit", "id": "EX1_248"}, "player": "opponent", "turn": 8}, {"card": {"mana": 4, "name": "Kor'kron Elite", "id": "NEW1_011"}, "player": "me", "turn": 9}, {"card": {"mana": 2, "name": "Battle Rage", "id": "EX1_392"}, "player": "me", "turn": 9}, {"card": {"mana": 6, "name": "Thing from Below", "id": "OG_028"}, "player": "opponent", "turn": 9}, {"card": {"mana": 5, "name": "Azure Drake", "id": "EX1_284"}, "player": "opponent", "turn": 9}, {"card": {"mana": 5, "name": "Azure Drake", "id": "EX1_284"}, "player": "me", "turn": 10}, {"card": {"mana": 4, "name": "Twilight Guardian", "id": "AT_017"}, "player": "me", "turn": 10}, {"card": {"mana": 1, "name": "Tunnel Trogg", "id": "LOE_018"}, "player": "opponent", "turn": 10}, {"card": {"mana": 2, "name": "Totem Golem", "id": "AT_052"}, "player": "opponent", "turn": 10}, {"card": {"mana": 2, "name": "Flametongue Totem", "id": "EX1_565"}, "player": "opponent", "turn": 10}, {"card": {"mana": 1, "name": "Evolve", "id": "OG_027"}, "player": "opponent", "turn": 10}, {"card": {"mana": 8, "name": "Grommash Hellscream", "id": "EX1_414"}, "player": "me", "turn": 11}], "duration": 380, "rank": 18, "hero": "Warrior", "note": null, "coin": false}, {"mode": "casual", "added": "2016-06-01T06:58:38.000Z", "opponent_deck": null, "result": "win", "hero_deck": null, "opponent": "Rogue", "id": 30174031, "card_history": [{"card": {"mana": 1, "name": "Sir Finley Mrrgglton", "id": "LOE_076"}, "player": "me", "turn": 1}, {"card": {"mana": 2, "name": "Fiery War Axe", "id": "CS2_106"}, "player": "me", "turn": 2}, {"card": {"mana": 2, "name": "Acidic Swamp Ooze", "id": "EX1_066"}, "player": "opponent", "turn": 2}, {"card": {"mana": 3, "name": "Fierce Monkey", "id": "LOE_022"}, "player": "me", "turn": 3}, {"card": {"mana": 2, "name": "Alexstrasza's Champion", "id": "AT_071"}, "player": "me", "turn": 4}, {"card": {"mana": 4, "name": "Refreshment Vendor", "id": "AT_111"}, "player": "opponent", "turn": 4}, {"card": {"mana": 3, "name": "Frothing Berserker", "id": "EX1_604"}, "player": "me", "turn": 5}, {"card": {"mana": 2, "name": "Shiv", "id": "EX1_278"}, "player": "opponent", "turn": 5}, {"card": {"mana": 3, "name": "Shadow Strike", "id": "OG_176"}, "player": "opponent", "turn": 5}, {"card": {"mana": 5, "name": "Blackwing Corruptor", "id": "BRM_034"}, "player": "me", "turn": 6}, {"card": {"mana": 3, "name": "Earthen Ring Farseer", "id": "CS2_117"}, "player": "opponent", "turn": 6}, {"card": {"mana": null, "name": "The Coin", "id": "GAME_005"}, "player": "opponent", "turn": 6}, {"card": {"mana": 2, "name": "Eviscerate", "id": "EX1_124"}, "player": "opponent", "turn": 6}, {"card": {"mana": 1, "name": "Execute", "id": "CS2_108"}, "player": "me", "turn": 7}, {"card": {"mana": 2, "name": "Faerie Dragon", "id": "NEW1_023"}, "player": "me", "turn": 7}, {"card": {"mana": 2, "name": "Doomsayer", "id": "NEW1_021"}, "player": "opponent", "turn": 7}, {"card": {"mana": 2, "name": "Battle Rage", "id": "EX1_392"}, "player": "me", "turn": 8}, {"card": {"mana": 3, "name": "Fan of Knives", "id": "EX1_129"}, "player": "opponent", "turn": 8}, {"card": {"mana": 8, "name": "Grommash Hellscream", "id": "EX1_414"}, "player": "me", "turn": 9}, {"card": {"mana": 1, "name": "Blood To Ichor", "id": "OG_314"}, "player": "me", "turn": 9}], "duration": 366, "hero": "Warrior", "note": null, "coin": false}], "meta": {"current_page": 10, "total_items": 138, "prev_page": 9, "next_page": null, "total_pages": 10}}