{"history": [{"coin": true, "duration": 630, "mode": "ranked", "note": null, "opponent_deck": null, "legend": null, "opponent": "Warlock", "result": "loss", "hero": "Druid", "id": 30289297, "added": "2016-06-02T02:11:30.000Z", "rank": 18, "card_history": [{"card": {"mana": 1, "name": "Living Roots", "id": "AT_037"}, "player": "me", "turn": 1}, {"card": {"mana": 2, "name": "Power of the Wild", "id": "EX1_160"}, "player": "me", "turn": 2}, {"card": {"mana": 4, "name": "Hellfire", "id": "CS2_062"}, "player": "opponent", "turn": 4}, {"card": {"mana": 1, "name": "Living Roots", "id": "AT_037"}, "player": "me", "turn": 4}, {"card": {"mana": null, "name": "The Coin", "id": "GAME_005"}, "player": "me", "turn": 4}, {"card": {"mana": 4, "name": "Soul of the Forest", "id": "EX1_158"}, "player": "me", "turn": 4}, {"card": {"mana": 4, "name": "Twilight Drake", "id": "EX1_043"}, "player": "opponent", "turn": 5}, {"card": {"mana": 2, "name": "Power of the Wild", "id": "EX1_160"}, "player": "me", "turn": 5}, {"card": {"mana": 3, "name": "Feral Rage", "id": "OG_047"}, "player": "me", "turn": 5}, {"card": {"mana": 6, "name": "Reno Jackson", "id": "LOE_011"}, "player": "opponent", "turn": 6}, {"card": {"mana": 4, "name": "Mire Keeper", "id": "OG_202"}, "player": "me", "turn": 6}, {"card": {"mana": 4, "name": "Hellfire", "id": "CS2_062"}, "player": "opponent", "turn": 7}, {"card": {"mana": 2, "name": "Sunfury Protector", "id": "EX1_058"}, "player": "opponent", "turn": 7}, {"card": {"mana": 0, "name": "Innervate", "id": "EX1_169"}, "player": "me", "turn": 7}, {"card": {"mana": 10, "name": "Yogg-Saron, Hope's End", "id": "OG_134"}, "player": "me", "turn": 7}, {"card": {"mana": 4, "name": "Refreshment Vendor", "id": "AT_111"}, "player": "opponent", "turn": 8}, {"card": {"mana": 4, "name": "Defender of Argus", "id": "EX1_093"}, "player": "opponent", "turn": 8}, {"card": {"mana": 7, "name": "Wisps of the Old Gods", "id": "OG_195"}, "player": "me", "turn": 8}, {"card": {"mana": 5, "name": "Azure Drake", "id": "EX1_284"}, "player": "opponent", "turn": 9}, {"card": {"mana": 4, "name": "Shadowflame", "id": "EX1_303"}, "player": "opponent", "turn": 9}, {"card": {"mana": 1, "name": "Raven Idol", "id": "LOE_115"}, "player": "me", "turn": 9}, {"card": {"mana": 9, "name": "Cenarius", "id": "EX1_573"}, "player": "me", "turn": 9}, {"card": {"mana": 3, "name": "Shadow Bolt", "id": "CS2_057"}, "player": "opponent", "turn": 10}, {"card": {"mana": 6, "name": "Sylvanas Windrunner", "id": "EX1_016"}, "player": "opponent", "turn": 10}, {"card": {"mana": 2, "name": "Wild Growth", "id": "CS2_013"}, "player": "me", "turn": 10}, {"card": {"mana": 0, "name": "Excess Mana", "id": "CS2_013t"}, "player": "me", "turn": 10}, {"card": {"mana": 1, "name": "Gadgetzan Jouster", "id": "AT_133"}, "player": "me", "turn": 10}, {"card": {"mana": 6, "name": "Cairne Bloodhoof", "id": "EX1_110"}, "player": "opponent", "turn": 11}, {"card": {"mana": 3, "name": "Earthen Ring Farseer", "id": "CS2_117"}, "player": "opponent", "turn": 11}, {"card": {"mana": 3, "name": "Savage Roar", "id": "CS2_011"}, "player": "me", "turn": 11}, {"card": {"mana": 4, "name": "Swipe", "id": "CS2_012"}, "player": "me", "turn": 11}, {"card": {"mana": 8, "name": "Ragnaros the Firelord", "id": "EX1_298"}, "player": "opponent", "turn": 12}], "hero_deck": "Token"}, {"coin": true, "duration": 367, "mode": "ranked", "note": null, "opponent_deck": null, "legend": null, "opponent": "Druid", "result": "win", "hero": "Warrior", "id": 30287815, "added": "2016-06-02T01:44:44.000Z", "rank": 18, "card_history": [{"card": {"mana": 1, "name": "Living Roots", "id": "AT_037"}, "player": "opponent", "turn": 1}, {"card": {"mana": 2, "name": "Power of the Wild", "id": "EX1_160"}, "player": "opponent", "turn": 2}, {"card": {"mana": 2, "name": "Fiery War Axe", "id": "CS2_106"}, "player": "me", "turn": 2}, {"card": {"mana": null, "name": "The Coin", "id": "GAME_005"}, "player": "me", "turn": 2}, {"card": {"mana": 1, "name": "Blood To Ichor", "id": "OG_314"}, "player": "me", "turn": 2}, {"card": {"mana": 2, "name": "Wrath", "id": "EX1_154"}, "player": "opponent", "turn": 3}, {"card": {"mana": 4, "name": "Kor'kron Elite", "id": "NEW1_011"}, "player": "me", "turn": 4}, {"card": {"mana": 4, "name": "Swipe", "id": "CS2_012"}, "player": "opponent", "turn": 5}, {"card": {"mana": 5, "name": "Azure Drake", "id": "EX1_284"}, "player": "me", "turn": 5}, {"card": {"mana": 4, "name": "Mire Keeper", "id": "OG_202"}, "player": "opponent", "turn": 6}, {"card": {"mana": 2, "name": "Wild Growth", "id": "CS2_013"}, "player": "opponent", "turn": 6}, {"card": {"mana": 5, "name": "Blackwing Corruptor", "id": "BRM_034"}, "player": "me", "turn": 6}, {"card": {"mana": 4, "name": "Fandral Staghelm", "id": "OG_044"}, "player": "opponent", "turn": 7}, {"card": {"mana": 5, "name": "Nourish", "id": "EX1_164"}, "player": "opponent", "turn": 7}, {"card": {"mana": 1, "name": "Raven Idol", "id": "LOE_115"}, "player": "opponent", "turn": 7}, {"card": {"mana": 5, "name": "Blackwing Corruptor", "id": "BRM_034"}, "player": "me", "turn": 7}, {"card": {"mana": 2, "name": "Fiery War Axe", "id": "CS2_106"}, "player": "me", "turn": 7}, {"card": {"mana": 10, "name": "Yogg-Saron, Hope's End", "id": "OG_134"}, "player": "opponent", "turn": 8}], "hero_deck": "Dragon"}, {"coin": false, "duration": 733, "mode": "ranked", "note": null, "opponent_deck": null, "legend": null, "opponent": "Shaman", "result": "win", "hero": "Druid", "id": 30287442, "added": "2016-06-02T01:38:04.000Z", "rank": 19, "card_history": [{"card": {"mana": null, "name": "The Coin", "id": "GAME_005"}, "player": "opponent", "turn": 1}, {"card": {"mana": 2, "name": "Beckoner of Evil", "id": "OG_281"}, "player": "opponent", "turn": 1}, {"card": {"mana": 0, "name": "Innervate", "id": "EX1_169"}, "player": "me", "turn": 2}, {"card": {"mana": 4, "name": "Mire Keeper", "id": "OG_202"}, "player": "me", "turn": 2}, {"card": {"mana": 4, "name": "Mire Keeper", "id": "OG_202"}, "player": "me", "turn": 3}, {"card": {"mana": 3, "name": "Feral Spirit", "id": "EX1_248"}, "player": "opponent", "turn": 3}, {"card": {"mana": 2, "name": "Wild Growth", "id": "CS2_013"}, "player": "me", "turn": 4}, {"card": {"mana": 5, "name": "Nourish", "id": "EX1_164"}, "player": "me", "turn": 5}, {"card": {"mana": 2, "name": "Power of the Wild", "id": "EX1_160"}, "player": "me", "turn": 5}, {"card": {"mana": 1, "name": "Tunnel Trogg", "id": "LOE_018"}, "player": "opponent", "turn": 5}, {"card": {"mana": 2, "name": "Totem Golem", "id": "AT_052"}, "player": "opponent", "turn": 5}, {"card": {"mana": 2, "name": "Beckoner of Evil", "id": "OG_281"}, "player": "opponent", "turn": 5}, {"card": {"mana": 9, "name": "Cenarius", "id": "EX1_573"}, "player": "me", "turn": 6}, {"card": {"mana": 4, "name": "Defender of Argus", "id": "EX1_093"}, "player": "opponent", "turn": 6}, {"card": {"mana": 4, "name": "Violet Teacher", "id": "NEW1_026"}, "player": "me", "turn": 7}, {"card": {"mana": 1, "name": "Raven Idol", "id": "LOE_115"}, "player": "me", "turn": 7}, {"card": {"mana": 2, "name": "Mark of the Wild", "id": "CS2_009"}, "player": "me", "turn": 7}, {"card": {"mana": 3, "name": "Feral Rage", "id": "OG_047"}, "player": "me", "turn": 7}, {"card": {"mana": 3, "name": "Hex", "id": "EX1_246"}, "player": "opponent", "turn": 7}, {"card": {"mana": 6, "name": "Thing from Below", "id": "OG_028"}, "player": "opponent", "turn": 7}, {"card": {"mana": 7, "name": "Wisps of the Old Gods", "id": "OG_195"}, "player": "me", "turn": 8}, {"card": {"mana": 1, "name": "Living Roots", "id": "AT_037"}, "player": "me", "turn": 8}, {"card": {"mana": 7, "name": "Twin Emperor Vek'lor", "id": "OG_131"}, "player": "opponent", "turn": 8}, {"card": {"mana": 4, "name": "Swipe", "id": "CS2_012"}, "player": "me", "turn": 9}, {"card": {"mana": 3, "name": "Lightning Storm", "id": "EX1_259"}, "player": "opponent", "turn": 9}, {"card": {"mana": 3, "name": "Mana Tide Totem", "id": "EX1_575"}, "player": "opponent", "turn": 9}, {"card": {"mana": 2, "name": "Wild Growth", "id": "CS2_013"}, "player": "me", "turn": 10}, {"card": {"mana": 0, "name": "Excess Mana", "id": "CS2_013t"}, "player": "me", "turn": 10}, {"card": {"mana": 7, "name": "Wisps of the Old Gods", "id": "OG_195"}, "player": "me", "turn": 10}, {"card": {"mana": 6, "name": "Thing from Below", "id": "OG_028"}, "player": "opponent", "turn": 10}, {"card": {"mana": 4, "name": "Master of Evolution", "id": "OG_328"}, "player": "opponent", "turn": 10}, {"card": {"mana": 1, "name": "Evolve", "id": "OG_027"}, "player": "opponent", "turn": 10}, {"card": {"mana": 1, "name": "Raven Idol", "id": "LOE_115"}, "player": "me", "turn": 11}, {"card": {"mana": 3, "name": "Savage Roar", "id": "CS2_011"}, "player": "me", "turn": 11}, {"card": {"mana": 1, "name": "Claw", "id": "CS2_005"}, "player": "me", "turn": 11}, {"card": {"mana": 1, "name": "Tunnel Trogg", "id": "LOE_018"}, "player": "opponent", "turn": 11}, {"card": {"mana": 2, "name": "Wrath", "id": "EX1_154"}, "player": "me", "turn": 12}, {"card": {"mana": 3, "name": "Feral Rage", "id": "OG_047"}, "player": "me", "turn": 12}, {"card": {"mana": 2, "name": "Power of the Wild", "id": "EX1_160"}, "player": "me", "turn": 12}, {"card": {"mana": 3, "name": "Hex", "id": "EX1_246"}, "player": "opponent", "turn": 12}, {"card": {"mana": 2, "name": "Wrath", "id": "EX1_154"}, "player": "me", "turn": 13}, {"card": {"mana": 4, "name": "Violet Teacher", "id": "NEW1_026"}, "player": "me", "turn": 13}, {"card": {"mana": 4, "name": "Soul of the Forest", "id": "EX1_158"}, "player": "me", "turn": 14}, {"card": {"mana": 4, "name": "C'Thun's Chosen", "id": "OG_283"}, "player": "opponent", "turn": 14}, {"card": {"mana": 0, "name": "Innervate", "id": "EX1_169"}, "player": "me", "turn": 15}, {"card": {"mana": 2, "name": "Flametongue Totem", "id": "EX1_565"}, "player": "opponent", "turn": 15}, {"card": {"mana": 1, "name": "Evolve", "id": "OG_027"}, "player": "opponent", "turn": 15}, {"card": {"mana": 5, "name": "Nourish", "id": "EX1_164"}, "player": "me", "turn": 16}, {"card": {"mana": 4, "name": "Fandral Staghelm", "id": "OG_044"}, "player": "me", "turn": 16}, {"card": {"mana": 1, "name": "Living Roots", "id": "AT_037"}, "player": "me", "turn": 16}, {"card": {"mana": 3, "name": "Tuskarr Totemic", "id": "AT_046"}, "player": "opponent", "turn": 16}, {"card": {"mana": 3, "name": "Savage Roar", "id": "CS2_011"}, "player": "me", "turn": 17}, {"card": {"mana": 4, "name": "Swipe", "id": "CS2_012"}, "player": "me", "turn": 17}], "hero_deck": "Token"}, {"coin": true, "duration": 364, "mode": "ranked", "note": null, "opponent_deck": null, "legend": null, "opponent": "Hunter", "result": "win", "hero": "Druid", "id": 30286759, "added": "2016-06-02T01:25:34.000Z", "rank": 19, "card_history": [{"card": {"mana": 1, "name": "Fiery Bat", "id": "OG_179"}, "player": "opponent", "turn": 1}, {"card": {"mana": 3, "name": "Animal Companion", "id": "NEW1_031"}, "player": "opponent", "turn": 3}, {"card": {"mana": 0, "name": "Innervate", "id": "EX1_169"}, "player": "me", "turn": 3}, {"card": {"mana": 4, "name": "Fandral Staghelm", "id": "OG_044"}, "player": "me", "turn": 3}, {"card": {"mana": 1, "name": "Living Roots", "id": "AT_037"}, "player": "me", "turn": 3}, {"card": {"mana": 3, "name": "Unleash the Hounds", "id": "EX1_538"}, "player": "opponent", "turn": 4}, {"card": {"mana": 4, "name": "Mire Keeper", "id": "OG_202"}, "player": "me", "turn": 4}, {"card": {"mana": 3, "name": "Deadly Shot", "id": "EX1_617"}, "player": "opponent", "turn": 5}, {"card": {"mana": 2, "name": "King's Elekk", "id": "AT_058"}, "player": "opponent", "turn": 5}, {"card": {"mana": 4, "name": "Violet Teacher", "id": "NEW1_026"}, "player": "me", "turn": 5}, {"card": {"mana": 2, "name": "Wild Growth", "id": "CS2_013"}, "player": "me", "turn": 5}, {"card": {"mana": 6, "name": "Savannah Highmane", "id": "EX1_534"}, "player": "opponent", "turn": 6}, {"card": {"mana": null, "name": "The Coin", "id": "GAME_005"}, "player": "me", "turn": 6}, {"card": {"mana": 9, "name": "Cenarius", "id": "EX1_573"}, "player": "me", "turn": 6}, {"card": {"mana": 3, "name": "Unleash the Hounds", "id": "EX1_538"}, "player": "opponent", "turn": 7}, {"card": {"mana": 3, "name": "Animal Companion", "id": "NEW1_031"}, "player": "opponent", "turn": 7}, {"card": {"mana": 3, "name": "Feral Rage", "id": "OG_047"}, "player": "me", "turn": 7}, {"card": {"mana": 1, "name": "Raven Idol", "id": "LOE_115"}, "player": "me", "turn": 7}, {"card": {"mana": 4, "name": "Infested Tauren", "id": "OG_249"}, "player": "me", "turn": 7}, {"card": {"mana": 1, "name": "Living Roots", "id": "AT_037"}, "player": "me", "turn": 7}], "hero_deck": "Token"}, {"coin": true, "duration": 524, "mode": "ranked", "note": null, "opponent_deck": null, "legend": null, "opponent": "Priest", "result": "win", "hero": "Druid", "id": 30282795, "added": "2016-06-02T00:20:08.000Z", "rank": 19, "card_history": [{"card": {"mana": null, "name": "The Coin", "id": "GAME_005"}, "player": "me", "turn": 3}, {"card": {"mana": 4, "name": "Mire Keeper", "id": "OG_202"}, "player": "me", "turn": 3}, {"card": {"mana": 4, "name": "Twilight Drake", "id": "EX1_043"}, "player": "opponent", "turn": 4}, {"card": {"mana": 1, "name": "Raven Idol", "id": "LOE_115"}, "player": "me", "turn": 4}, {"card": {"mana": 4, "name": "Soul of the Forest", "id": "EX1_158"}, "player": "me", "turn": 4}, {"card": {"mana": 4, "name": "Twilight Drake", "id": "EX1_043"}, "player": "opponent", "turn": 5}, {"card": {"mana": 3, "name": "Feral Rage", "id": "OG_047"}, "player": "me", "turn": 5}, {"card": {"mana": 1, "name": "Living Roots", "id": "AT_037"}, "player": "me", "turn": 5}, {"card": {"mana": 2, "name": "Shadow Word: Pain", "id": "CS2_234"}, "player": "opponent", "turn": 6}, {"card": {"mana": 4, "name": "Mire Keeper", "id": "OG_202"}, "player": "me", "turn": 6}, {"card": {"mana": 2, "name": "Shadow Word: Pain", "id": "CS2_234"}, "player": "opponent", "turn": 7}, {"card": {"mana": 9, "name": "Cenarius", "id": "EX1_573"}, "player": "me", "turn": 7}, {"card": {"mana": 5, "name": "Holy Nova", "id": "CS1_112"}, "player": "opponent", "turn": 8}, {"card": {"mana": 1, "name": "Twilight Whelp", "id": "BRM_004"}, "player": "opponent", "turn": 8}, {"card": {"mana": 4, "name": "Violet Teacher", "id": "NEW1_026"}, "player": "me", "turn": 8}, {"card": {"mana": 2, "name": "Wrath", "id": "EX1_154"}, "player": "me", "turn": 8}, {"card": {"mana": 4, "name": "Swipe", "id": "CS2_012"}, "player": "me", "turn": 8}, {"card": {"mana": 3, "name": "Thoughtsteal", "id": "EX1_339"}, "player": "opponent", "turn": 9}, {"card": {"mana": 1, "name": "Raven Idol", "id": "LOE_115"}, "player": "opponent", "turn": 9}, {"card": {"mana": 5, "name": "Holy Nova", "id": "CS1_112"}, "player": "opponent", "turn": 9}, {"card": {"mana": 4, "name": "Fandral Staghelm", "id": "OG_044"}, "player": "me", "turn": 9}, {"card": {"mana": 2, "name": "Wild Growth", "id": "CS2_013"}, "player": "me", "turn": 9}, {"card": {"mana": 0, "name": "Excess Mana", "id": "CS2_013t"}, "player": "me", "turn": 9}, {"card": {"mana": 4, "name": "Soul of the Forest", "id": "EX1_158"}, "player": "me", "turn": 9}, {"card": {"mana": 6, "name": "Holy Fire", "id": "EX1_624"}, "player": "opponent", "turn": 10}, {"card": {"mana": 2, "name": "Doomsayer", "id": "NEW1_021"}, "player": "opponent", "turn": 10}, {"card": {"mana": 7, "name": "Wisps of the Old Gods", "id": "OG_195"}, "player": "me", "turn": 10}, {"card": {"mana": 7, "name": "Confessor Paletress", "id": "AT_018"}, "player": "opponent", "turn": 11}, {"card": {"mana": 4, "name": "Swipe", "id": "CS2_012"}, "player": "me", "turn": 11}, {"card": {"mana": 0, "name": "Innervate", "id": "EX1_169"}, "player": "me", "turn": 11}], "hero_deck": null}, {"coin": true, "duration": 283, "mode": "ranked", "note": null, "opponent_deck": null, "legend": null, "opponent": "Warrior", "result": "win", "hero": "Druid", "id": 30277416, "added": "2016-06-01T23:05:56.000Z", "rank": 19, "card_history": [{"card": {"mana": 2, "name": "Wild Growth", "id": "CS2_013"}, "player": "me", "turn": 2}, {"card": {"mana": 4, "name": "Mire Keeper", "id": "OG_202"}, "player": "me", "turn": 3}, {"card": {"mana": 4, "name": "Twilight Drake", "id": "EX1_043"}, "player": "opponent", "turn": 4}, {"card": {"mana": 4, "name": "Violet Teacher", "id": "NEW1_026"}, "player": "me", "turn": 4}, {"card": {"mana": 2, "name": "Wrath", "id": "EX1_154"}, "player": "me", "turn": 4}, {"card": {"mana": null, "name": "The Coin", "id": "GAME_005"}, "player": "me", "turn": 4}, {"card": {"mana": 1, "name": "Living Roots", "id": "AT_037"}, "player": "me", "turn": 4}, {"card": {"mana": 3, "name": "Bash", "id": "AT_064"}, "player": "opponent", "turn": 5}, {"card": {"mana": 2, "name": "Alexstrasza's Champion", "id": "AT_071"}, "player": "opponent", "turn": 5}, {"card": {"mana": 0, "name": "Innervate", "id": "EX1_169"}, "player": "me", "turn": 5}, {"card": {"mana": 9, "name": "Cenarius", "id": "EX1_573"}, "player": "me", "turn": 5}, {"card": {"mana": 5, "name": "Azure Drake", "id": "EX1_284"}, "player": "opponent", "turn": 6}, {"card": {"mana": 2, "name": "Power of the Wild", "id": "EX1_160"}, "player": "me", "turn": 6}, {"card": {"mana": 1, "name": "Execute", "id": "CS2_108"}, "player": "opponent", "turn": 7}, {"card": {"mana": 6, "name": "Emperor Thaurissan", "id": "BRM_028"}, "player": "opponent", "turn": 7}, {"card": {"mana": 1, "name": "Raven Idol", "id": "LOE_115"}, "player": "me", "turn": 7}, {"card": {"mana": 6, "name": "Starfire", "id": "EX1_173"}, "player": "me", "turn": 7}], "hero_deck": null}, {"coin": true, "duration": 267, "mode": "ranked", "note": null, "opponent_deck": null, "legend": null, "opponent": "Warlock", "result": "loss", "hero": "Druid", "id": 30276996, "added": "2016-06-01T23:00:59.000Z", "rank": 19, "card_history": [{"card": {"mana": 1, "name": "Possessed Villager", "id": "OG_241"}, "player": "opponent", "turn": 1}, {"card": {"mana": null, "name": "The Coin", "id": "GAME_005"}, "player": "me", "turn": 1}, {"card": {"mana": 2, "name": "Wrath", "id": "EX1_154"}, "player": "me", "turn": 1}, {"card": {"mana": 2, "name": "Dark Peddler", "id": "LOE_023"}, "player": "opponent", "turn": 2}, {"card": {"mana": 3, "name": "Imp Gang Boss", "id": "BRM_006"}, "player": "opponent", "turn": 3}, {"card": {"mana": 2, "name": "Power of the Wild", "id": "EX1_160"}, "player": "me", "turn": 3}, {"card": {"mana": 1, "name": "Voidwalker", "id": "CS2_065"}, "player": "opponent", "turn": 4}, {"card": {"mana": 2, "name": "Wild Growth", "id": "CS2_013"}, "player": "me", "turn": 4}, {"card": {"mana": 4, "name": "Defender of Argus", "id": "EX1_093"}, "player": "opponent", "turn": 5}, {"card": {"mana": 0, "name": "Innervate", "id": "EX1_169"}, "player": "me", "turn": 5}, {"card": {"mana": 0, "name": "Innervate", "id": "EX1_169"}, "player": "me", "turn": 5}, {"card": {"mana": 9, "name": "Cenarius", "id": "EX1_573"}, "player": "me", "turn": 5}, {"card": {"mana": 1, "name": "Flame Imp", "id": "EX1_319"}, "player": "opponent", "turn": 6}, {"card": {"mana": 7, "name": "Wisps of the Old Gods", "id": "OG_195"}, "player": "me", "turn": 6}, {"card": {"mana": 1, "name": "Power Overwhelming", "id": "EX1_316"}, "player": "opponent", "turn": 7}, {"card": {"mana": 4, "name": "Defender of Argus", "id": "EX1_093"}, "player": "opponent", "turn": 7}, {"card": {"mana": 1, "name": "Soulfire", "id": "EX1_308"}, "player": "opponent", "turn": 7}, {"card": {"mana": 1, "name": "Soulfire", "id": "EX1_308"}, "player": "opponent", "turn": 7}], "hero_deck": null}, {"coin": false, "duration": 21, "mode": "ranked", "note": null, "opponent_deck": null, "legend": null, "opponent": "Priest", "result": "win", "hero": "Druid", "id": 30276564, "added": "2016-06-01T22:56:05.000Z", "rank": null, "card_history": [], "hero_deck": null}, {"coin": true, "duration": 401, "mode": "ranked", "note": null, "opponent_deck": null, "legend": null, "opponent": "Rogue", "result": "loss", "hero": "Warrior", "id": 30211909, "added": "2016-06-01T13:51:07.000Z", "rank": 17, "card_history": [{"card": {"mana": 1, "name": "Journey Below", "id": "OG_072"}, "player": "opponent", "turn": 1}, {"card": {"mana": 1, "name": "Sir Finley Mrrgglton", "id": "LOE_076"}, "player": "me", "turn": 1}, {"card": {"mana": 3, "name": "SI:7 Agent", "id": "EX1_134"}, "player": "opponent", "turn": 3}, {"card": {"mana": 1, "name": "Blood To Ichor", "id": "OG_314"}, "player": "me", "turn": 3}, {"card": {"mana": 0, "name": "Backstab", "id": "CS2_072"}, "player": "opponent", "turn": 4}, {"card": {"mana": 4, "name": "Tomb Pillager", "id": "LOE_012"}, "player": "opponent", "turn": 4}, {"card": {"mana": 4, "name": "Twilight Guardian", "id": "AT_017"}, "player": "me", "turn": 4}, {"card": {"mana": null, "name": "The Coin", "id": "GAME_005"}, "player": "me", "turn": 4}, {"card": {"mana": 1, "name": "Blood To Ichor", "id": "OG_314"}, "player": "me", "turn": 4}, {"card": {"mana": 4, "name": "Tomb Pillager", "id": "LOE_012"}, "player": "opponent", "turn": 5}, {"card": {"mana": null, "name": "The Coin", "id": "GAME_005"}, "player": "opponent", "turn": 5}, {"card": {"mana": 2, "name": "Loot Hoarder", "id": "EX1_096"}, "player": "opponent", "turn": 5}, {"card": {"mana": 2, "name": "Fiery War Axe", "id": "CS2_106"}, "player": "me", "turn": 5}, {"card": {"mana": 4, "name": "Tomb Pillager", "id": "LOE_012"}, "player": "opponent", "turn": 6}, {"card": {"mana": null, "name": "The Coin", "id": "GAME_005"}, "player": "opponent", "turn": 6}, {"card": {"mana": 3, "name": "SI:7 Agent", "id": "EX1_134"}, "player": "opponent", "turn": 6}, {"card": {"mana": 5, "name": "Azure Drake", "id": "EX1_284"}, "player": "me", "turn": 6}, {"card": {"mana": 2, "name": "Undercity Huckster", "id": "OG_330"}, "player": "opponent", "turn": 7}, {"card": {"mana": 2, "name": "Eviscerate", "id": "EX1_124"}, "player": "opponent", "turn": 7}, {"card": {"mana": 3, "name": "Ravaging Ghoul", "id": "OG_149"}, "player": "me", "turn": 7}, {"card": {"mana": 1, "name": "Execute", "id": "CS2_108"}, "player": "me", "turn": 7}, {"card": {"mana": 1, "name": "Deadly Poison", "id": "CS2_074"}, "player": "opponent", "turn": 8}, {"card": {"mana": 5, "name": "Dark Iron Skulker", "id": "BRM_008"}, "player": "opponent", "turn": 8}, {"card": {"mana": 3, "name": "Frothing Berserker", "id": "EX1_604"}, "player": "me", "turn": 8}, {"card": {"mana": 5, "name": "Azure Drake", "id": "EX1_284"}, "player": "me", "turn": 8}, {"card": {"mana": null, "name": "The Coin", "id": "GAME_005"}, "player": "opponent", "turn": 9}, {"card": {"mana": 10, "name": "Varian Wrynn", "id": "AT_072"}, "player": "opponent", "turn": 9}, {"card": {"mana": 6, "name": "Cairne Bloodhoof", "id": "EX1_110"}, "player": "opponent", "turn": 9}, {"card": {"mana": 3, "name": "Harvest Golem", "id": "EX1_556"}, "player": "opponent", "turn": 9}, {"card": {"mana": 6, "name": "Sylvanas Windrunner", "id": "EX1_016"}, "player": "opponent", "turn": 9}], "hero_deck": null}, {"coin": false, "duration": 380, "mode": "ranked", "note": null, "opponent_deck": null, "legend": null, "opponent": "Shaman", "result": "win", "hero": "Warrior", "id": 30211136, "added": "2016-06-01T13:44:15.000Z", "rank": 18, "card_history": [{"card": {"mana": 1, "name": "Sir Finley Mrrgglton", "id": "LOE_076"}, "player": "me", "turn": 1}, {"card": {"mana": null, "name": "The Coin", "id": "GAME_005"}, "player": "opponent", "turn": 1}, {"card": {"mana": 2, "name": "Stormcrack", "id": "OG_206"}, "player": "opponent", "turn": 1}, {"card": {"mana": 2, "name": "Faerie Dragon", "id": "NEW1_023"}, "player": "me", "turn": 2}, {"card": {"mana": 2, "name": "Fiery War Axe", "id": "CS2_106"}, "player": "me", "turn": 3}, {"card": {"mana": 3, "name": "Feral Spirit", "id": "EX1_248"}, "player": "opponent", "turn": 3}, {"card": {"mana": 2, "name": "Battle Rage", "id": "EX1_392"}, "player": "me", "turn": 4}, {"card": {"mana": 2, "name": "Flametongue Totem", "id": "EX1_565"}, "player": "opponent", "turn": 4}, {"card": {"mana": 5, "name": "Blackwing Corruptor", "id": "BRM_034"}, "player": "me", "turn": 5}, {"card": {"mana": 6, "name": "Thing from Below", "id": "OG_028"}, "player": "opponent", "turn": 5}, {"card": {"mana": 1, "name": "Blood To Ichor", "id": "OG_314"}, "player": "me", "turn": 6}, {"card": {"mana": 2, "name": "Faerie Dragon", "id": "NEW1_023"}, "player": "me", "turn": 6}, {"card": {"mana": 3, "name": "Elemental Destruction", "id": "AT_051"}, "player": "opponent", "turn": 6}, {"card": {"mana": 3, "name": "Mana Tide Totem", "id": "EX1_575"}, "player": "opponent", "turn": 6}, {"card": {"mana": 2, "name": "Fiery War Axe", "id": "CS2_106"}, "player": "me", "turn": 7}, {"card": {"mana": 8, "name": "Ragnaros the Firelord", "id": "EX1_298"}, "player": "me", "turn": 8}, {"card": {"mana": 3, "name": "Tuskarr Totemic", "id": "AT_046"}, "player": "opponent", "turn": 8}, {"card": {"mana": 3, "name": "Feral Spirit", "id": "EX1_248"}, "player": "opponent", "turn": 8}, {"card": {"mana": 4, "name": "Kor'kron Elite", "id": "NEW1_011"}, "player": "me", "turn": 9}, {"card": {"mana": 2, "name": "Battle Rage", "id": "EX1_392"}, "player": "me", "turn": 9}, {"card": {"mana": 6, "name": "Thing from Below", "id": "OG_028"}, "player": "opponent", "turn": 9}, {"card": {"mana": 5, "name": "Azure Drake", "id": "EX1_284"}, "player": "opponent", "turn": 9}, {"card": {"mana": 5, "name": "Azure Drake", "id": "EX1_284"}, "player": "me", "turn": 10}, {"card": {"mana": 4, "name": "Twilight Guardian", "id": "AT_017"}, "player": "me", "turn": 10}, {"card": {"mana": 1, "name": "Tunnel Trogg", "id": "LOE_018"}, "player": "opponent", "turn": 10}, {"card": {"mana": 2, "name": "Totem Golem", "id": "AT_052"}, "player": "opponent", "turn": 10}, {"card": {"mana": 2, "name": "Flametongue Totem", "id": "EX1_565"}, "player": "opponent", "turn": 10}, {"card": {"mana": 1, "name": "Evolve", "id": "OG_027"}, "player": "opponent", "turn": 10}, {"card": {"mana": 8, "name": "Grommash Hellscream", "id": "EX1_414"}, "player": "me", "turn": 11}], "hero_deck": null}, {"coin": false, "duration": 366, "mode": "casual", "opponent_deck": null, "note": null, "opponent": "Rogue", "result": "win", "hero": "Warrior", "id": 30174031, "added": "2016-06-01T06:58:38.000Z", "card_history": [{"card": {"mana": 1, "name": "Sir Finley Mrrgglton", "id": "LOE_076"}, "player": "me", "turn": 1}, {"card": {"mana": 2, "name": "Fiery War Axe", "id": "CS2_106"}, "player": "me", "turn": 2}, {"card": {"mana": 2, "name": "Acidic Swamp Ooze", "id": "EX1_066"}, "player": "opponent", "turn": 2}, {"card": {"mana": 3, "name": "Fierce Monkey", "id": "LOE_022"}, "player": "me", "turn": 3}, {"card": {"mana": 2, "name": "Alexstrasza's Champion", "id": "AT_071"}, "player": "me", "turn": 4}, {"card": {"mana": 4, "name": "Refreshment Vendor", "id": "AT_111"}, "player": "opponent", "turn": 4}, {"card": {"mana": 3, "name": "Frothing Berserker", "id": "EX1_604"}, "player": "me", "turn": 5}, {"card": {"mana": 2, "name": "Shiv", "id": "EX1_278"}, "player": "opponent", "turn": 5}, {"card": {"mana": 3, "name": "Shadow Strike", "id": "OG_176"}, "player": "opponent", "turn": 5}, {"card": {"mana": 5, "name": "Blackwing Corruptor", "id": "BRM_034"}, "player": "me", "turn": 6}, {"card": {"mana": 3, "name": "Earthen Ring Farseer", "id": "CS2_117"}, "player": "opponent", "turn": 6}, {"card": {"mana": null, "name": "The Coin", "id": "GAME_005"}, "player": "opponent", "turn": 6}, {"card": {"mana": 2, "name": "Eviscerate", "id": "EX1_124"}, "player": "opponent", "turn": 6}, {"card": {"mana": 1, "name": "Execute", "id": "CS2_108"}, "player": "me", "turn": 7}, {"card": {"mana": 2, "name": "Faerie Dragon", "id": "NEW1_023"}, "player": "me", "turn": 7}, {"card": {"mana": 2, "name": "Doomsayer", "id": "NEW1_021"}, "player": "opponent", "turn": 7}, {"card": {"mana": 2, "name": "Battle Rage", "id": "EX1_392"}, "player": "me", "turn": 8}, {"card": {"mana": 3, "name": "Fan of Knives", "id": "EX1_129"}, "player": "opponent", "turn": 8}, {"card": {"mana": 8, "name": "Grommash Hellscream", "id": "EX1_414"}, "player": "me", "turn": 9}, {"card": {"mana": 1, "name": "Blood To Ichor", "id": "OG_314"}, "player": "me", "turn": 9}], "hero_deck": null}], "meta": {"prev_page": 13, "next_page": null, "current_page": 14, "total_items": 206, "total_pages": 14}}